<?xml version="1.0" standalone="no"?>
<!DOCTYPE svg PUBLIC "-//W3C//DTD SVG 1.1//EN" "http://www.w3.org/Graphics/SVG/1.1/DTD/svg11.dtd" >
<svg xmlns="http://www.w3.org/2000/svg">
<metadata>Generated by IcoMoon</metadata>
<defs>
<font id="icomoon" horiz-adv-x="1024">
<font-face units-per-em="1024" ascent="960" descent="-64" />
<missing-glyph horiz-adv-x="1024" />
<glyph unicode="&#x20;" horiz-adv-x="512" d="" />
<glyph unicode="&#xe900;" glyph-name="check" d="M1024 704l-128 128-512-512-256 256-128-128 384-384 640 640z" />
<glyph unicode="&#xe901;" glyph-name="minus" d="M0 544h1024v-192h-1024v192z" />
<glyph unicode="&#xe902;" glyph-name="down-chevron" d="M1000.82 744.82c-14.353 14.328-34.168 23.188-56.052 23.188-22.152 0-42.183-9.078-56.577-23.717l-0.011-0.011-376.18-392.28-376.18 392.26c-14.498 15.47-35.057 25.108-57.868 25.108-43.763 0-79.24-35.477-79.24-79.24 0-22.81 9.638-43.37 25.064-57.828l0.043-0.040 488.18-504.26 488.26 504.22c14.659 14.397 23.744 34.426 23.744 56.578 0 21.874-8.859 41.679-23.184 56.023l0.001-0.001z" />
</font></defs></svg>